[gd_scene load_steps=3 format=3 uid="uid://chtl1m7fyairk"]

[ext_resource type="Texture2D" uid="uid://bpvjon0lcnwje" path="res://icon.svg" id="1_7mhos"]

[sub_resource type="CapsuleShape2D" id="CapsuleShape2D_2t8i1"]
radius = 50.0
height = 152.0

[node name="RotatingDefender" type="Node2D"]

[node name="Sprite2D" type="Sprite2D" parent="."]
position = Vector2(101.5, -1.90735e-06)
rotation = 1.5708
scale = Vector2(0.425341, 0.434499)
texture = ExtResource("1_7mhos")

[node name="WhackArea" type="Area2D" parent="."]
position = Vector2(157, 0)

[node name="CollisionPolygon2D" type="CollisionShape2D" parent="WhackArea"]
shape = SubResource("CapsuleShape2D_2t8i1")
