[gd_resource type="JSON" format=3 uid="uid://d63mq2dlvqtb"]

[resource]
data = [{
"image": "res://icon.svg",
"sfx": null,
"speech_bubble": "Rules",
"text": "Hey, Wil! Do you know what's smarter than a talking cat?...",
"time": null
},{
"image": "res://icon.svg",
"sfx": null,
"speech_bubble": "Rules",
"text": "A spelling bee!! Hahahahaha",
"time": null
},{
"image": "res://icon.svg",
"sfx": null,
"speech_bubble": "Rules",
"text": "Of course my dear Wil here is not much of talking cat... In fact, you might say she's a dumb cat! Hahahaha",
"time": null
},{
"image": "res://icon.svg",
"sfx": null,
"speech_bubble": "Rules",
"text": "...",
"time": null
},{
"image": "res://icon.svg",
"sfx": null,
"speech_bubble": "Rules",
"text": "Well, this here game is all about spelling. Welcome to... Arcabadrumble!",
"time": null
}, {
"image": null,
"sfx": null,
"speech_bubble": "Rules",
"text": "I'm sorry... I mean, Aclebaj... Jumblecabr... A-B-R-C... Oh, nevermind.",
"time": null
}, {
"image": null,
"sfx": null,
"speech_bubble": "Rules",
"text": "The important thing is: our contestants have to guess a set of mystery Words, letter by letter.",
"time": null
}, {
"image": null,
"sfx": null,
"speech_bubble": "Rules",
"text": "On their turn, they can pick a letter. If it's in the Words, they get to go again. If not, they lose their turn.",
"time": null
}, {
"image": null,
"sfx": null,
"speech_bubble": "Rules",
"text": "Oh, and, contestants, be quick about it! I'll skip your turn if you take longer than 10 seconds to pick a letter.",
"time": null
}, {
"image": null,
"sfx": null,
"speech_bubble": "Rules",
"text": "Each correct guess is worth 1 point. The contestant with the least points by the end Will be... Well, you know.",
"time": null
}, {
"image": null,
"sfx": null,
"speech_bubble": "Rules",
"text": "Ready?",
"time": 0.7
}, {
"image": null,
"sfx": null,
"speech_bubble": "Rules",
"text": "Set.",
"time": 0.7
}, {
"image": null,
"sfx": null,
"speech_bubble": "Rules",
"text": "Go!",
"time": 0.3
} 
]
