[gd_scene load_steps=3 format=3 uid="uid://c3p8ryv3ynnrm"]

[ext_resource type="Script" path="res://minigames/abracajumble/LetterButton.gd" id="1_hfnd6"]

[sub_resource type="StyleBoxFlat" id="StyleBoxFlat_82op1"]
content_margin_left = 25.0
content_margin_top = 2.0
content_margin_right = 25.0
content_margin_bottom = 2.0
bg_color = Color(0.111197, 0.111197, 0.111197, 1)
corner_radius_top_left = 5
corner_radius_top_right = 5
corner_radius_bottom_right = 5
corner_radius_bottom_left = 5

[node name="LetterButton" type="Button" groups=["LETTER BUTTON"]]
mouse_default_cursor_shape = 2
theme_override_font_sizes/font_size = 22
theme_override_styles/normal = SubResource("StyleBoxFlat_82op1")
text = "A"
script = ExtResource("1_hfnd6")

[connection signal="pressed" from="." to="." method="_on_pressed"]
